[gd_resource type="Animation" format=2]

[resource]
resource_name = "Fade"
tracks/0/type = "value"
tracks/0/path = NodePath(".:volume_db")
tracks/0/interp = 1
tracks/0/loop_wrap = true
tracks/0/imported = false
tracks/0/enabled = true
tracks/0/keys = {
"times": PoolRealArray( 0, 1 ),
"transitions": PoolRealArray( 1, 1 ),
"update": 0,
"values": [ 0.0, -40.0 ]
}
