[gd_scene load_steps=4 format=2]

[ext_resource path="res://Scripts/Music.gd" type="Script" id=1]
[ext_resource path="res://Audios/Musics/TeknoAXE/Masquerade_Ball_117_bpm.ogg" type="AudioStream" id=2]
[ext_resource path="res://Animations/Fade.tres" type="Animation" id=3]

[node name="Undeads_Music" type="AudioStreamPlayer" groups=[
"Music",
]]
stream = ExtResource( 2 )
script = ExtResource( 1 )
bpm = 119

[node name="Start" type="Timer" parent="."]

[node name="AnimationPlayer" type="AnimationPlayer" parent="."]
anims/Fade = ExtResource( 3 )
