; Engine configuration file.
; It's best edited using the editor UI and not directly,
; since the parameters that go here are not all obvious.
;
; Format:
;   [section] ; section goes between []
;   param=value ; assign values to parameters

config_version=4

_global_script_classes=[ {
"base": "KinematicBody2D",
"class": "Enemy",
"language": "GDScript",
"path": "res://Scripts/Enemy.gd"
}, {
"base": "AudioStreamPlayer",
"class": "WaveMusic",
"language": "GDScript",
"path": "res://Scripts/Music.gd"
}, {
"base": "Node2D",
"class": "enemy_type_wave",
"language": "GDScript",
"path": "res://Scripts/Wave.gd"
} ]
_global_script_class_icons={
"Enemy": "",
"WaveMusic": "",
"enemy_type_wave": ""
}

[application]

config/name="spooky_scary_jam"
run/main_scene="res://Scenes/Manager/Global_Manager.tscn"
config/icon="res://Sprites/Pixel Studio/Pumpkin_Icon.ico"
config/macos_native_icon="res://Sprites/Pixel Studio/Pumpkin_Icon.ico"
config/windows_native_icon="res://Sprites/Pixel Studio/Pumpkin_Icon.ico"

[audio]

default_bus_layout=""

[display]

window/size/height=720
window/stretch/mode="2d"
window/stretch/aspect="keep"

[input]

attack={
"deadzone": 0.5,
"events": [ Object(InputEventKey,"resource_local_to_scene":false,"resource_name":"","device":0,"alt":false,"shift":false,"control":false,"meta":false,"command":false,"pressed":false,"scancode":90,"unicode":0,"echo":false,"script":null)
 ]
}

[layer_names]

2d_physics/layer_1="Player"
2d_physics/layer_2="Enemy"
2d_physics/layer_3="Note"
2d_physics/layer_4="Picker"

[rendering]

environment/default_environment="res://default_env.tres"
